-	script	#onDie	NPC32767,{
    end;

OnPCDieEvent:
    if (BaseLevel < 10) end; // Below level 10: No loses.

    //if (PC_DIE_COUNTER >= 1 && PC_DIE_COUNTER2 == 0) goto L_aviso;

    //if (@killerrid == 0) goto L_PerdeExp;
    //@killerrid = 0;
    goto L_PerdeExp;
    end;

L_PerdeExp:
    if (BaseLevel < 20) set @reducao, 90;
    if (BaseLevel < 30) set @reducao, 91;
    if (BaseLevel < 40) set @reducao, 92;
    if (BaseLevel < 50) set @reducao, 93;
    if (BaseLevel < 60) set @reducao, 94;
    if (BaseLevel < 70) set @reducao, 95;
    if (BaseLevel < 80) set @reducao, 96;
    if (BaseLevel < 90) set @reducao, 97;
    if (BaseLevel < 99) set @reducao, 98;

    if (Sex == 0) message strcharinfo(0), l("* Poor girl. You was killed and will lose money and experience.");
    if (Sex == 1) message strcharinfo(0), l("* Poor boy. You was killed and will lose money and experience.");

    @n = rand(4);
    if (@n == 0) message strcharinfo(0), l(">_< não!");
    if (@n == 1) message strcharinfo(0), l("¬_¬ aff!");
    if (@n == 2) message strcharinfo(0), l("u_u grr!");
    if (@n == 3) message strcharinfo(0), l("x_x grr!");

    Zeny = (Zeny*10/9); // Loses 10% from money
    BaseExp = 0; // Loses all experience
    //(BaseExp * 0.98); // Loses 2% of experience
    end;

}
