008-7,60,23,7,4	monster	Limo Masmorra	1391,5,600000,300000,Mob008-7::On1391
008-7,24,23,7,4	monster	Esqueleto Adaga	1303,1,60000,60000,Mob008-7::On1303


008-7,0,0,0	script	Mob008-7	NPC32767,{
    end;

On1391:
    @mobId = 1391;
    callfunc "MobPoints";
    end;

On1303:
    @mobId = 1303;
    callfunc "MobPoints";
    end;
}
